…
}
```

# Section 3

``` r
redData1 <- contactFunction(s = "red", y = 2000)
redData2 <- contactFunction(s = "red", y = 2010)
redData3 <- contactFunction(s = "red", y = 2020)
half <- full_join(redData1, redData2)
edaData <- full_join(half, redData3)
edaData
```

    ## # A tibble: 30 × 4
    ##    Title                                  Year      imdbID    Type  
    ##    <chr>                                  <chr>     <chr>     <chr> 
    ##  1 Red Planet                             2000      tt0199753 movie 
    ##  2 Clifford the Big Red Dog               2000–2003 tt0233041 series
    ##  3 Command & Conquer: Red Alert 2         2000      tt0252338 game  
    ##  4 Agent Red                              2000      tt0218080 movie 
    ##  5 Red Dirt                               2000      tt0160749 movie 
    ##  6 Red Hot Chili Peppers: Californication 2000      tt6720730 movie 
    ##  7 Red Letters                            2000      tt0217758 movie 
    ##  8 Red Room 2                             2000      tt0371945 movie 
    ##  9 Rocket's Red Glare                     2000      tt0219279 movie 
    ## 10 Red Hot Chili Peppers: Otherside       2000      tt6720738 movie 
    ## # ℹ 20 more rows
…
#Create new variable
#initialize Sequel Variable
edaData$Sequel <- ""
for(i in 1:30){
  if(grepl("2", edaData$Title[i]) == "TRUE"){
    edaData$Sequel[i] = "Yes"
  }
  else {
    edaData$Sequel[i] = "No"
  }
}
edaData
```

    ## # A tibble: 30 × 5
    ##    Title                                  Year      imdbID    Type   Sequel
    ##    <chr>                                  <chr>     <chr>     <chr>  <chr> 
    ##  1 Red Planet                             2000      tt0199753 movie  No    
    ##  2 Clifford the Big Red Dog               2000–2003 tt0233041 series No    
    ##  3 Command & Conquer: Red Alert 2         2000      tt0252338 game   Yes   
    ##  4 Agent Red                              2000      tt0218080 movie  No    
    ##  5 Red Dirt                               2000      tt0160749 movie  No    
    ##  6 Red Hot Chili Peppers: Californication 2000      tt6720730 movie  No    
    ##  7 Red Letters                            2000      tt0217758 movie  No    
    ##  8 Red Room 2                             2000      tt0371945 movie  Yes   
    ##  9 Rocket's Red Glare                     2000      tt0219279 movie  No    
    ## 10 Red Hot Chili Peppers: Otherside       2000      tt6720738 movie  No    
    ## # ℹ 20 more rows

``` r
#initialize length of title variable
edaData$lengthOfTitle <- 0
for(i in 1:30){
  edaData$lengthOfTitle[i] <- nchar(edaData$Title[i])
}
edaData
```

    ## # A tibble: 30 × 6
    ##    Title                                  Year      imdbID  Type  Sequel lengthOfTitle
    ##    <chr>                                  <chr>     <chr>   <chr> <chr>          <dbl>
    ##  1 Red Planet                             2000      tt0199… movie No                10
    ##  2 Clifford the Big Red Dog               2000–2003 tt0233… seri… No                24
    ##  3 Command & Conquer: Red Alert 2         2000      tt0252… game  Yes               30
    ##  4 Agent Red                              2000      tt0218… movie No                 9
    ##  5 Red Dirt                               2000      tt0160… movie No                 8
    ##  6 Red Hot Chili Peppers: Californication 2000      tt6720… movie No                38
    ##  7 Red Letters                            2000      tt0217… movie No                11
    ##  8 Red Room 2                             2000      tt0371… movie Yes               10
    ##  9 Rocket's Red Glare                     2000      tt0219… movie No                18
    ## 10 Red Hot Chili Peppers: Otherside       2000      tt6720… movie No                32
    ## # ℹ 20 more rows
…
